{
  "_version": "1.0.0",
  "genericCategory": {
    "metadata": {
      "serial": 1
    },
    "name": "fareClass",
    "values": [
      "firstClass",
      "secondClass",
      "businessClass",
      "economyClass",
      "any"
    ]
  }
}